Yunyang Zhong: Prediction of Health Outcomes Based on Various Environmental and Socioeconomic Factors
…
Then applied it to our training data.

pollution_recipe %>% 
  prep(pollution_training) %>%
  juice()

# A tibble: 114 x 33
   annual_mean_pm25 annual_mean_ozone annual_mean_pb annual_mean_pm10
              <dbl>             <dbl>          <dbl>            <dbl>
 1           0.769             1.91           -0.438           1.20  
 2          -0.791            -0.0862         -0.176          -0.426 
 3           0.0376           -0.153          -0.176           0.136 
 4           0.130            -0.118          -0.176           0.0213
 5          -0.851             0.0999         -0.969          -0.949 
 6          -0.625            -0.107          -0.860          -0.442 
 7           0.861            -0.0905         -0.176          -0.150 
 8           1.70              0.645          -0.176          -1.08  
 9          -1.25             -1.03           -0.176          -0.150 
10           3.09             -0.0905         -0.176          -0.150 
# ... with 104 more rows, and 29 more variables:
#   annual_mean_co <dbl>, annual_mean_no2 <dbl>,
#   annual_mean_so2 <dbl>, hpi2score <dbl>, economic <dbl>,
#   education <dbl>, housing <dbl>, healthcareaccess <dbl>,
#   neighborhood <dbl>, pollution <dbl>, transportation <dbl>,
#   social <dbl>, insured <dbl>, uncrowded <dbl>,
#   homeownership <dbl>, automobile <dbl>, commute <dbl>, ...
…
Looked at the RMSE of the model output to determine the best model to use on the testing data.

pollution_lasso_tune %>% 
  select(id, .metrics) %>% 
  unnest(.metrics) %>% 
  filter(.metric == "rmse")

# A tibble: 100 x 6
   id     penalty .metric .estimator .estimate .config              
   <chr>    <dbl> <chr>   <chr>          <dbl> <chr>                
 1 Fold1 1   e-10 rmse    standard       0.232 Preprocessor1_Model01
 2 Fold1 3.36e-10 rmse    standard       0.232 Preprocessor1_Model02
 3 Fold1 1.13e- 9 rmse    standard       0.232 Preprocessor1_Model03
 4 Fold1 3.79e- 9 rmse    standard       0.232 Preprocessor1_Model04
 5 Fold1 1.27e- 8 rmse    standard       0.232 Preprocessor1_Model05
 6 Fold1 4.28e- 8 rmse    standard       0.232 Preprocessor1_Model06
 7 Fold1 1.44e- 7 rmse    standard       0.232 Preprocessor1_Model07
 8 Fold1 4.83e- 7 rmse    standard       0.232 Preprocessor1_Model08
 9 Fold1 1.62e- 6 rmse    standard       0.232 Preprocessor1_Model09
10 Fold1 5.46e- 6 rmse    standard       0.232 Preprocessor1_Model10
# ... with 90 more rows
…
Computational engine: glmnet 

Using this finalized workflow, we fit the data to the training data and visualized the estimate values.

pollution_lasso_final_mod <- pollution_lasso_final_wf %>% 
  fit(data = pollution_training)

pollution_lasso_final_mod %>% 
  pull_workflow_fit() %>% 
  tidy() 

# A tibble: 33 x 3
   term              estimate penalty
   <chr>                <dbl>   <dbl>
 1 (Intercept)        2.97    0.00785
 2 annual_mean_pm25   0       0.00785
 3 annual_mean_ozone  0.00160 0.00785
 4 annual_mean_pb     0.0210  0.00785
 5 annual_mean_pm10  -0.161   0.00785
 6 annual_mean_co     0.0539  0.00785
 7 annual_mean_no2   -0.132   0.00785
 8 annual_mean_so2    0.0652  0.00785
 9 hpi2score          0       0.00785
10 economic           0       0.00785
# ... with 23 more rows
…
Applied the recipe to the training data.

pollution_rfrecipe %>% 
  prep(pollution_training) %>%
  juice()

# A tibble: 114 x 33
   annual_mean_pm25 annual_mean_ozone annual_mean_pb annual_mean_pm10
              <dbl>             <dbl>          <dbl>            <dbl>
 1           0.769             1.91           -0.438           1.20  
 2          -0.791            -0.0862         -0.176          -0.426 
 3           0.0376           -0.153          -0.176           0.136 
 4           0.130            -0.118          -0.176           0.0213
 5          -0.851             0.0999         -0.969          -0.949 
 6          -0.625            -0.107          -0.860          -0.442 
 7           0.861            -0.0905         -0.176          -0.150 
 8           1.70              0.645          -0.176          -1.08  
 9          -1.25             -1.03           -0.176          -0.150 
10           3.09             -0.0905         -0.176          -0.150 
# ... with 104 more rows, and 29 more variables:
#   annual_mean_co <dbl>, annual_mean_no2 <dbl>,
#   annual_mean_so2 <dbl>, hpi2score <dbl>, economic <dbl>,
#   education <dbl>, housing <dbl>, healthcareaccess <dbl>,
#   neighborhood <dbl>, pollution <dbl>, transportation <dbl>,
#   social <dbl>, insured <dbl>, uncrowded <dbl>,
#   homeownership <dbl>, automobile <dbl>, commute <dbl>, ...
…
After we had our set of candidate models (9 random forest, 20 lasso, and 10 boost), we started stacking. We followed the process laid out on the stacks webpage.

First, we created the stack. Shown by the number of columns, it removed some of the lasso models, likely since they were too similar to other lasso models. The set of candidate models now has 9 random forest, 9 lasso, and 9 boost.

pollution_stack <- 
  stacks() %>% 
  add_candidates(boost_tune) %>%
  add_candidates(pollution_lasso_tune) %>% 
  add_candidates(pollution_rfTUNE)

We can look at the predictions from the candidate models in a tibble. Most of the predictions are very close to the actual values, except the first few boost models.

as_tibble(pollution_stack)

# A tibble: 114 x 28
   log_asthma boost_tune_1_01 boost_tune_1_03 boost_tune_1_04
        <dbl>           <dbl>           <dbl>           <dbl>
 1       3.65             0.5             0.5           0.500
 2       2.06             0.5             0.5           0.500
 3       2.06             0.5             0.5           0.500
 4       2.82             0.5             0.5           0.500
 5       3.05             0.5             0.5           0.500
 6       3.98             0.5             0.5           0.500
 7       1.95             0.5             0.5           0.500
 8       2.29             0.5             0.5           0.500
 9       2.17             0.5             0.5           0.500
10       1.73             0.5             0.5           0.500
# ... with 104 more rows, and 24 more variables:
#   boost_tune_1_05 <dbl>, boost_tune_1_06 <dbl>,
#   boost_tune_1_07 <dbl>, boost_tune_1_08 <dbl>,
#   boost_tune_1_09 <dbl>, boost_tune_1_10 <dbl>,
#   pollution_lasso_tune_1_01 <dbl>, pollution_lasso_tune_1_13 <dbl>,
#   pollution_lasso_tune_1_14 <dbl>, pollution_lasso_tune_1_15 <dbl>,
#   pollution_lasso_tune_1_16 <dbl>, ...
…
